name: 'Health Advice'
description: ''
endpoints:
  -
    httpMethods:
      - GET
    uri: api/fusion/health-advice
    metadata:
      groupName: 'Health Advice'
      groupDescription: ''
      subgroup: ''
      subgroupDescription: ''
      title: index
      description: 'Display a listing of the resource.'
      authenticated: true
      custom: []
    headers:
      Content-Type: application/json
      Accept: application/json
    urlParameters: []
    cleanUrlParameters: []
    queryParameters: []
    cleanQueryParameters: []
    bodyParameters: []
    cleanBodyParameters: []
    fileParameters: []
    responses:
      -
        status: 200
        content: |-
          {
           "current_page": 1,
           "data": [
             {
               "uuid": "257a6a55-6263-43d9-8232-629b4da1280c",
               "name": "Conselhor Federal de Biomedicina",
               "initials": "CFBM"
             },
             {
               "uuid": "d2a99b96-938d-4d96-914d-b051c418fe75",
               "name": "Conselho Regional de Biomedicina",
               "initials": "CRBM"
             }
           ],
           "first_page_url": "http:\/\/localhost:9000\/api\/fusion\/health-advice?page=1",
           "from": 1,
           "last_page": 2,
           "last_page_url": "http:\/\/localhost:9000\/api\/fusion\/health-advice?page=2",
           "links": [
             {
               "url": null,
               "label": "&laquo; Previous",
               "active": false
             },
             {
               "url": "http:\/\/localhost:9000\/api\/fusion\/health-advice?page=1",
               "label": "1",
               "active": true
             },
             {
               "url": "http:\/\/localhost:9000\/api\/fusion\/health-advice?page=2",
               "label": "2",
               "active": false
             },
             {
               "url": "http:\/\/localhost:9000\/api\/fusion\/health-advice?page=2",
               "label": "Next &raquo;",
               "active": false
             }
           ],
           "next_page_url": "http:\/\/localhost:9000\/api\/fusion\/health-advice?page=2",
           "path": "http:\/\/localhost:9000\/api\/fusion\/health-advice",
           "per_page": 15,
           "prev_page_url": null,
           "to": 15,
           "total": 21
          }
        headers: []
        description: ''
        custom: []
    responseFields: []
    auth: []
    controller: null
    method: null
    route: null
    custom: []
